verification/dump.vcd
$date
   Tue Jul 14 04:05:33 2026
$end

$version
  2025.1.0
  $dumpfile ("dump.vcd") 
$end

$timescale
  1ps
$end

$scope module tb_top $end
$var reg 1 ! clk $end
$var reg 1 " rst $end
$scope module commit_if $end
$var wire 1 # clk $end
$var wire 1 $ rst $end
$var reg 20 % commit_decode_pkt $end
$var reg 68 & store_buffer_commit_pkt $end
$var reg 32 ' pc [31:0] $end
$var reg 32 ( reg_data [31:0] $end
$upscope $end
$scope module dut $end
$var wire 1 ) clk $end
$var wire 1 * rst $end
$var reg 20 + commit_decode_pkt $end
$var reg 65 , instr_fetch_ctrl_pkt_i $end
$var reg 1 - decode_stall $end
$var reg 1 . issue_stall $end
$var reg 1 / wb_stall $end
$var reg 1 0 stall $end
$var reg 1 1 decode_is_spec_instr $end
$var reg 65 2 instr_fetch_output_pkt $end
$var reg 35 3 commit_spec_exec_answr_pkt $end
$var reg 1 4 instr_fetch_exception $end
$var reg 33 5 writeback_mem_addr_conflict_pkt $end
$var reg 11 6 commit_rt_iq_update_pkt $end
$var reg 74 7 decode_instr $end
$var reg 20 8 decode_rob_instance_pkt $end
$var reg 1 9 decode_spec_exec_buffer_instance_pkt $end
$var reg 36 : decode_pc_buff_inst $end
$var reg 1 ; decode_mem_buff_wr_en $end
$var reg 163 < issue_fetch_pkt $end
$var reg 38 = writeback_phys_reg_pkt $end
$var reg 39 > exec_mem_stage_pkt $end
$var reg 38 ? exec_mem_spec_exec_answr $end
$var reg 114 @ mem_op_addr_pkt $end
$var reg 68 A store_buffer_commit_pkt $end
$scope module instr_fetch_stage_inst $end
$var wire 1 ) clk $end
$var wire 1 * rst $end
$var reg 65 , instr_fetch_ctrl_pkt_i $end
$var wire 1 B is_spec_instr_i $end
$var reg 65 2 if_output_pkt_o $end
$var reg 35 3 spec_exec_answr_pkt_i $end
$var reg 1 4 exception_o $end
$var wire 1 C stall_i $end
$var reg 33 5 mem_addr_conflict_pkt_i $end
$var reg 32 D pc [31:0] $end
$var reg 1 E crrct_trgt_en $end
$var reg 1 F bp_hit $end
$var reg 1 G bp_pred $end
$var reg 1 H tb_hit $end
$var reg 32 I tb_predict_trgt [31:0] $end
$var reg 32 J instr_mem_addr [31:0] $end
$var reg 32 K instr_mem_addr_adj [31:0] $end
$var reg 65 L shift_reg_pkt_2 $end
$var reg 1 M trgt_shift_buff_full $end
$var reg 1 N branch_mispredict $end
$var reg 1 O trgt_mispredict $end
$var reg 1 P jump_mispredict $end
$var reg 1 Q exception_internal $end
$var reg 1 R master_stall $end
$scope module branch_predictor_inst $end
$var wire 1 ) clk $end
$var wire 1 * rst $end
$var wire 32 S curr_addr_i [31:0] $end
$var reg 1 F hit_o $end
$var reg 1 G pred_o $end
$var wire 1 T write_en_i $end
$var wire 1 U correct_result_i $end
$var wire 32 V old_pc_i [31:0] $end
$var reg 24 W curr_tag [23:0] $end
$var reg 6 X curr_index [5:0] $end
$var reg 1 Y \DirectMapped.miss_condition  $end
$scope begin DirectMapped.CheckingAPrediction $end
$scope begin Block356_300 $end
$upscope $end
$upscope $end
$upscope $end
$scope module trgt_buffer_inst $end
$var wire 1 ) clk $end
$var wire 1 * rst $end
$var wire 32 Z curr_addr_i [31:0] $end
$var reg 1 H hit_o $end
$var reg 32 I predict_trgt_o [31:0] $end
$var wire 1 [ write_en_i $end
$var wire 32 \ correct_trgt_i [31:0] $end
$var wire 32 V old_pc_i [31:0] $end
$var reg 24 ] curr_tag [23:0] $end
$var reg 6 ^ curr_index [5:0] $end
$var reg 1 _ \DirectMapped.miss_condition  $end
$scope begin DirectMapped.CheckingAPrediction $end
$upscope $end
$upscope $end
$scope module instr_memory $end
$var wire 1 ) clk $end
$var wire 1 ` we $end
$var wire 10 a addr [9:0] $end
$var wire 32 b din [31:0] $end
$var reg 32 c dout [31:0] $end
$upscope $end
$scope module trgt_shift_register_inst $end
$var wire 1 ) clk $end
$var wire 1 * rst $end
$var wire 32 d predict_trgt_i [31:0] $end
$var wire 1 e brnch_pred_i $end
$var wire 32 f old_pc_i [31:0] $end
$var wire 1 B is_spec_instr_i $end
$var wire 1 g rd_en_i $end
$var reg 65 L shift_reg_pkt_2_o $end
$var reg 1 M full_o $end
$var reg 65 h predicted_trgt_and_pred_pkt $end
$var reg 65 i predicted_trgt_and_pred_pkt_ff $end
$var reg 65 j xilinx_isim_temp_311_ln240_blkAssignCaching $end
$scope module shift_reg_fifo $end
$var wire 1 ) clk $end
$var wire 1 * rst $end
$var wire 65 k data_i [64:0] $end
$var wire 1 g rd_en_i $end
$var wire 1 B wr_en_i $end
$var reg 65 L data_o [64:0] $end
$var reg 1 M full_o $end
$var reg 1 l empty_o $end
$var reg 3 m wr_ptr [2:0] $end
$var reg 3 n rd_ptr [2:0] $end
$upscope $end
$upscope $end
$upscope $end
$scope module decode_stage_inst $end
$var wire 1 ) clk $end
$var wire 1 * rst $end
$var reg 65 2 if_input_i $end
$var reg 20 + decode_commit_pkt_i $end
$var reg 11 6 rt_iq_update_pkt_i $end
$var reg 74 7 decode_instr_o $end
$var reg 20 8 rob_instance_pkt_o $end
$var reg 1 1 is_spec_instr_o $end
$var reg 1 9 spec_exec_buffer_instance_pkt_o $end
$var reg 36 : pc_buff_inst_o $end
$var reg 1 ; mem_buff_wr_en_o $end
$var wire 1 o exception_i $end
$var reg 1 - stall_o $end
$var reg 65 p if_input_ff $end
$var reg 11 q rt_iq_update_pkt_ff $end
$var reg 1 r exception_ff $end
$var reg 1 s free_list_rd_en $end
$var reg 5 t free_list_free_ptr [4:0] $end
$var reg 1 u free_list_empty $end
$var reg 5 v rename_table_prf_dest_ptr [4:0] $end
$var reg 5 w rename_table_arf_ptr [4:0] $end
$var reg 1 x rename_table_decode_en $end
$var reg 5 y rename_table_arf_src0 [4:0] $end
$var reg 5 z rename_table_arf_src1 [4:0] $end
$var reg 5 { rename_table_prf_src0 [4:0] $end
$var reg 5 | rename_table_prf_src1 [4:0] $end
$var reg 1 } rename_table_src0_pending $end
$var reg 1 ~ rename_table_src1_pending $end
$var reg 5 !! rename_table_rob_dest_arf [4:0] $end
$var reg 5 "! rename_table_rob_dest_prf [4:0] $end
$var reg 80 #! issue_queue_entry $end
$var reg 74 $! issue_queue_instr_out $end
$var reg 1 %! issue_queue_empty $end
$var reg 1 &! issue_queue_full $end
$var reg 1 '! issue_queue_all_stalled $end
$var reg 3 (! issue_queue_future_exec_stage_slots [2:0] $end
$var reg 1 )! mini_scoreboard_wr_en $end
$var reg 17 *! mini_scoreboard_op [16:0] $end
$var reg 32 +! instr_ff [31:0] $end
$var reg 1 ,! new_instr_ready $end
$var reg 1 -! iq_instr_ready $end
$var reg 1 .! dispatch_instr $end
$var reg 1 /! cntrl_instr $end
$var reg 1 0! pc_instr $end
$var reg 1 1! mem_instr $end
$var reg 1 2! master_instr_valid $end
$var reg 6 3! rob_head_counter [5:0] $end
$var reg 3 4! spec_exec_counter [2:0] $end
$var reg 3 5! pc_instr_counter [2:0] $end
$var reg 6 6! mem_buff_counter [5:0] $end
$var reg 36 7! xilinx_isim_temp_322_ln69_blkAssignCaching $end
$var reg 20 8! xilinx_isim_temp_321_ln59_blkAssignCaching $end
$scope module free_list_inst $end
$var wire 1 ) clk $end
$var wire 1 * rst $end
$var wire 1 9! wr_en_i $end
$var wire 5 :! prev_phys_ptr_i [4:0] $end
$var wire 1 ;! exception_i $end
$var wire 5 <! commited_ptr_i [4:0] $end
$var wire 1 =! rd_en_i $end
$var reg 5 t free_ptr_o [4:0] $end
$var reg 1 u none_free_o $end
$var reg 32 >! free_list [31:0] $end
$var reg 32 ?! commit_list [31:0] $end
$var reg 1 @! found $end
$scope begin Block405_314 $end
$var reg 32 A! i [31:0] $end
$upscope $end
$upscope $end
$scope module rename_table_async_read_inst $end
$var wire 1 ) clk $end
$var wire 1 * rst $end
$var wire 5 B! prf_ptr_i [4:0] $end
$var wire 5 C! arf_ptr_i [4:0] $end
$var wire 1 D! decode_en_i $end
$var wire 5 E! prf_ptr_sb_i [4:0] $end
$var wire 5 F! arf_ptr_sb_i [4:0] $end
$var wire 1 G! writeback_en_i $end
$var wire 5 H! arf_src0_i [4:0] $end
$var wire 5 I! arf_src1_i [4:0] $end
$var reg 5 { prf_src0_o [4:0] $end
$var reg 5 | prf_src1_o [4:0] $end
$var reg 1 } src0_pending_o $end
$var reg 1 ~ src1_pending_o $end
$var wire 5 J! rob_dest_arf_i [4:0] $end
$var reg 5 "! rob_dest_prf_o [4:0] $end
$var wire 1 K! commit_en_i $end
$var wire 5 L! commit_arf_i [4:0] $end
$var wire 5 <! commit_prf_i [4:0] $end
$var wire 1 M! exception_i $end
$scope begin Block502_317 $end
$var reg 32 N! i [31:0] $end
$upscope $end
$upscope $end
$scope module issue_queue_inst $end
$var wire 1 ) clk $end
$var wire 1 * rst $end
$var reg 80 #! iq_entry_i $end
$var wire 5 E! prf_dst_i [4:0] $end
$var wire 1 G! prf_wr_en_i $end
$var wire 3 O! future_exec_stage_slots_i [2:0] $end
$var reg 74 $! instr_o $end
$var reg 1 %! empty_o $end
$var reg 1 &! full_o $end
$var reg 1 '! all_stalled_o $end
$var wire 1 P! exception_i $end
$var reg 1 Q! wr_en $end
$var reg 16 R! valid_array [15:0] $end
$var reg 16 S! ready_array [15:0] $end
$var reg 16 T! priority_ready_array [15:0] $end
$scope begin Block573_319 $end
$var reg 32 U! i [31:0] $end
$upscope $end
$scope begin Block583_321 $end
$var reg 32 V! i [31:0] $end
$upscope $end
$scope begin Block601_323 $end
$var reg 32 W! i [31:0] $end
$upscope $end
$scope begin Block622_325 $end
$var reg 32 X! i [31:0] $end
$upscope $end
$scope begin Block640_326 $end
$var reg 32 Y! i [31:0] $end
$upscope $end
$scope begin Block649_327 $end
$var reg 32 Z! i [31:0] $end
$upscope $end
$upscope $end
$scope module mini_scoreboard_inst $end
$var wire 1 ) clk $end
$var wire 1 * rst $end
$var wire 1 [! wr_en_i $end
$var wire 17 \! op_i [16:0] $end
$var reg 3 (! future_exec_stage_slots_o [2:0] $end
$var wire 1 ]! exception_i $end
$var reg 4 ^! exec_stage_slots_int [3:0] $end
$scope begin Block684_329 $end
$var reg 32 _! i [31:0] $end
$upscope $end
$upscope $end
$upscope $end
$scope module issue_stage_inst $end
$var wire 1 ) clk $end
$var wire 1 * rst $end
$var reg 74 7 instr_i $end
$var reg 163 < fetch_pkt_o $end
$var reg 38 = wb_phys_reg_pkt_i $end
$var reg 36 : buff_inst_i $end
$var wire 1 `! exception_i $end
$var reg 1 . stall_o $end
$var reg 74 a! instr_ff $end
$var reg 36 b! buff_inst_ff $end
$var reg 1 c! exception_ff $end
$var reg 32 d! phys_reg_src0_data [31:0] $end
$var reg 32 e! phys_reg_src1_data [31:0] $end
$var reg 32 f! pc_out [31:0] $end
$var reg 20 g! imm_compr_ff [19:0] $end
$var reg 7 h! instr_op_ff [6:0] $end
$var reg 1 i! is_imm_ff $end
$scope module physical_register $end
$var wire 1 ) clk $end
$var wire 1 * rst $end
$var wire 5 j! addr_r_1_i [4:0] $end
$var wire 5 k! addr_r_2_i [4:0] $end
$var reg 32 d! data_r_1_o [31:0] $end
$var reg 32 e! data_r_2_o [31:0] $end
$var wire 1 l! write_en_i $end
$var wire 5 m! addr_w_i [4:0] $end
$var wire 32 n! data_w_i [31:0] $end
$upscope $end
$scope module pc_buff_inst $end
$var wire 1 ) clk $end
$var wire 1 * rst $end
$var reg 36 b! buff_inst_i $end
$var wire 1 o! is_pc_instr $end
$var wire 3 p! rd_ptr_i [2:0] $end
$var reg 32 f! pc_out_o [31:0] $end
$var wire 1 q! exception_i $end
$var reg 1 . full_o $end
$var reg 3 r! counter [2:0] $end
$var reg 1 s! empty $end
$upscope $end
$upscope $end
$scope module execute_memory_stage_inst $end
$var wire 1 ) clk $end
$var wire 1 * rst $end
$var reg 163 < fetch_pkt_i $end
$var reg 39 > ex_mem_stage_pkt_o $end
$var reg 38 ? spec_exec_answr_o $end
$var wire 1 t! exception_i $end
$var reg 114 @ mem_addr_pkt_o $end
$var reg 68 A store_buffer_commit_pkt_i $end
$var reg 163 u! fetch_pkt_ff $end
$var reg 1 v! exception_ff $end
$var reg 17 w! ex_mem_scoreboard_data_new $end
$var reg 17 x! ex_mem_scoreboard_data_o $end
$var reg 32 y! alu_result [31:0] $end
$var reg 1 z! alu_zero $end
$var reg 32 {! brnch_trgt [31:0] $end
$var reg 32 |! jump_trgt [31:0] $end
$var reg 6 }! funct_unit_one_hot_o [5:0] $end
$var reg 1 ~! store_o $end
$scope module scoreboard_inst $end
$var wire 1 ) clk $end
$var wire 1 * rst $end
$var wire 3 !" funct_unit_i $end
$var reg 17 w! sb_data_pkt_i $end
$var reg 17 x! sb_data_pkt_o $end
$var wire 1 "" exception_i $end
$var reg 1 #" new_op_delay [0:0] $end
$scope begin Block236_345 $end
$var reg 32 $" i [31:0] $end
$upscope $end
$upscope $end
$scope module alu_stage_inst $end
$var wire 1 %" en_i $end
$var wire 32 &" a_i [31:0] $end
$var wire 32 '" b_i [31:0] $end
$var wire 4 (" funct_code_i [3:0] $end
$var reg 32 )" result_o [31:0] $end
$var reg 1 z! zero_o $end
$var reg 32 *" a [31:0] $end
$var reg 32 +" b [31:0] $end
$var reg 4 ," alu_cntrl [3:0] $end
$scope module alu_inst $end
$var wire 32 -" a_i [31:0] $end
$var wire 32 ." b_i [31:0] $end
$var wire 4 /" alu_cntrl_i [3:0] $end
$var reg 32 )" result_o [31:0] $end
$var reg 1 z! zero_o $end
$upscope $end
$upscope $end
$scope module mem_stage_inst $end
$var wire 1 ) clk $end
$var wire 1 * rst $end
$var wire 1 0" en_i $end
$var wire 1 1" store_i $end
$var wire 32 2" pc_i [31:0] $end
$var wire 6 3" mem_buff_ptr_i [5:0] $end
$var wire 4 (" funct_code_i [3:0] $end
$var wire 32 &" base_addr_i [31:0] $end
$var wire 32 4" offset_i [31:0] $end
$var wire 32 '" store_data_i [31:0] $end
$var reg 32 5" data_o [63:32] $end
$var reg 114 @ mem_addr_pkt_o $end
$var reg 68 A store_buffer_commit_pkt_i $end
$var wire 1 6" exception_i $end
$var reg 32 7" base_addr [31:0] $end
$var reg 32 8" offset [31:0] $end
$var reg 32 9" store_data [31:0] $end
$var reg 32 :" addr [31:0] $end
$var reg 32 ;" pc [31:0] $end
$var reg 32 <" loaded_data [31:0] $end
$var reg 4 =" funct_code_ff [3:0] $end
$var reg 1 >" load_ff $end
$var reg 2 ?" lower_addr_bits_ff [1:0] $end
$var reg 32 @" rd_addr_adj [31:0] $end
$var reg 32 A" wr_addr_adj [31:0] $end
$scope module data_memory $end
$var wire 1 ) clk $end
$var wire 4 B" vec_wr_en [3:0] $end
$var wire 10 C" rd_addr [9:0] $end
$var wire 10 D" wr_addr [9:0] $end
$var wire 32 E" din [31:0] $end
$var reg 32 <" dout [31:0] $end
$scope begin Block245_352 $end
$var reg 32 F" i [31:0] $end
$upscope $end
$upscope $end
$upscope $end
$scope module branch_stage_inst $end
$var wire 1 G" en_i $end
$var wire 4 (" funct_code_i [3:0] $end
$var wire 32 &" src0_data_i [31:0] $end
$var wire 32 '" src1_data_i [31:0] $end
$var wire 32 2" pc_i [31:0] $end
$var wire 32 4" imm_i [31:0] $end
$var reg 1 H" branch_taken_o $end
$var reg 32 {! trgt_o [31:0] $end
$var reg 32 I" src0_data [31:0] $end
$var reg 32 J" src1_data [31:0] $end
$var reg 32 K" imm [31:0] $end
$var reg 32 L" pc [31:0] $end
$var reg 4 M" funct_code [3:0] $end
$scope module branch_unit_inst $end
$var wire 4 N" funct_code_i [3:0] $end
$var wire 32 O" src0_data_i [31:0] $end
$var wire 32 P" src1_data_i [31:0] $end
$var reg 1 H" branch_taken_o $end
$upscope $end
$upscope $end
$scope module jalr_stage_inst $end
$var wire 1 Q" en_i $end
$var wire 32 2" pc_i [31:0] $end
$var wire 4 (" funct_code_i [3:0] $end
$var wire 32 &" rs1_data_i [31:0] $end
$var wire 32 '" imm_i [31:0] $end
$var reg 32 |! pc_o [31:0] $end
$var reg 32 R" pc_plus_4_o [95:64] $end
$var reg 32 S" pc [31:0] $end
$var reg 32 T" rs1_data [31:0] $end
$var reg 32 U" imm [31:0] $end
$var reg 4 V" funct_code [3:0] $end
$upscope $end
$scope module auipc_stage_inst $end
$var wire 1 W" en_i $end
$var wire 32 2" pc_i [31:0] $end
$var wire 32 '" imm_i [31:0] $end
$var reg 32 X" result_o [127:96] $end
$var reg 32 Y" pc [31:0] $end
$var reg 32 Z" imm [31:0] $end
$upscope $end
$upscope $end
$scope module writeback_stage_inst $end
$var wire 1 ) clk $end
$var wire 1 * rst $end
$var reg 20 8 rob_instance_pkt_i $end
$var reg 39 > ex_mem_stage_pkt_i $end
$var reg 20 + commit_stage_pkt_o $end
$var reg 38 = wb_phys_reg_pkt_o $end
$var reg 11 6 rt_iq_update_pkt_o $end
$var reg 1 9 spec_exec_buffer_instance_pkt_i $end
$var reg 38 ? spec_exec_answr_i $end
$var reg 35 3 spec_exec_answr_pkt_o $end
$var wire 1 [" exception_i $end
$var reg 1 / stall_o $end
$var wire 1 \" mem_buff_wr_en_i $end
$var reg 114 @ mem_addr_pkt_i $end
$var reg 33 5 mem_addr_conflict_pkt_o $end
$var reg 68 A store_buffer_commit_pkt_o $end
$var reg 39 ]" ex_mem_stage_pkt_ff $end
$var reg 38 ^" spec_exec_answr_ff $end
$var reg 1 _" exception_ff $end
$var reg 1 `" rob_full $end
$var reg 1 a" seab_full $end
$var reg 1 b" mem_addr_full $end
$scope module rob_buffer_inst $end
$var wire 1 ) clk $end
$var wire 1 * rst $end
$var reg 20 8 rob_instance_pkt_i $end
$var reg 39 ]" ex_mem_stage_pkt_i $end
$var reg 20 + commit_stage_pkt_o $end
$var wire 1 c" rob_full_o $end
$var reg 38 = wb_phys_reg_pkt_o $end
$var reg 11 6 rt_iq_update_pkt_o $end
$var wire 1 d" exception_i $end
$var reg 6 e" head_ptr [5:0] $end
$var reg 6 f" tail_ptr [5:0] $end
$var reg 5 g" head_ptr_lower [4:0] $end
$var reg 5 h" tail_ptr_lower [4:0] $end
$var reg 11 i" xilinx_isim_temp_355_ln342_blkAssignCaching $end
$var reg 38 j" xilinx_isim_temp_354_ln340_blkAssignCaching $end
$scope begin Block365_365 $end
$var reg 32 k" i [31:0] $end
$upscope $end
$upscope $end
$scope module spec_exec_answer_buffer_inst $end
$var wire 1 ) clk $end
$var wire 1 * rst $end
$var reg 38 ^" spec_exec_answr_i $end
$var wire 1 l" full_o $end
$var reg 1 9 spec_exec_buffer_instance_pkt_i $end
$var wire 1 m" commit_en_i $end
$var wire 1 n" commit_spec_instr_en_i $end
$var reg 35 3 spec_exec_answr_pkt_o $end
$var wire 1 o" exception_i $end
$var reg 1 p" empty $end
$var reg 1 q" forward $end
$var reg 3 r" head_ptr [2:0] $end
$var reg 3 s" tail_ptr [2:0] $end
$var reg 2 t" head_ptr_lower [1:0] $end
$var reg 2 u" tail_ptr_lower [1:0] $end
$scope function set_wb_shift_reg_pkt $end
$upscope $end
$upscope $end
$scope module mem_addr_buffer_inst $end
$var wire 1 ) clk $end
$var wire 1 * rst $end
$var reg 114 @ mem_addr_pkt_i $end
$var wire 1 v" full_o $end
$var wire 1 \" mem_buff_instance_wr_en_i $end
$var wire 1 m" commit_en_i $end
$var wire 1 w" store_commit_en_i $end
$var wire 1 x" mem_commit_en_i $end
$var reg 33 5 mem_addr_conflict_pkt_o $end
$var reg 68 A store_buffer_commit_pkt_o $end
$var wire 1 y" exception_i $end
$var reg 6 z" head_ptr [5:0] $end
$var reg 6 {" tail_ptr [5:0] $end
$var reg 5 |" head_ptr_lower [4:0] $end
$var reg 5 }" tail_ptr_lower [4:0] $end
$var reg 32 ~" cnflct_arry [31:0] $end
$var reg 1 !# frwd_cnflct $end
$var reg 68 "# xilinx_isim_temp_356_ln143_blkAssignCaching $end
$scope begin Block198_373 $end
$var reg 32 ## i [31:0] $end
$upscope $end
$upscope $end
$upscope $end
$upscope $end
$upscope $end
$enddefinitions $end

#0
$dumpvars
0!
bx !!
bx !"
0!#
1"
bx "!
x""
bx "#
0#
b0 #!
0#"
b0 ##
1$
b0 $!
b0 $"
b0 %
x%!
x%"
b0 &
x&!
bx &"
b0 '
x'!
bx '"
b0 (
bx (!
bx ("
0)
x)!
b0 )"
1*
b0 *!
b0 *"
b0 +
bx +!
b0 +"
b0 ,
x,!
b0 ,"
x-
x-!
b0 -"
x.
x.!
b0 ."
x/
x/!
b0 /"
x0
x0!
x0"
01
x1!
x1"
bx 2
x2!
bx 2"
b0 3
bx 3!
bx 3"
x4
bx 4!
bx 4"
b0xxxxxxxxxxxxxxxxxxxxxxxxxxxxxxxx 5
bx 5!
b0 5"
b0 6
bx 6!
x6"
b0 7
bx 7!
b0 7"
b0 8
bx 8!
b0 8"
09
09!
b0 9"
b0 :
b0 :!
b0 :"
0;
x;!
b0 ;"
bx000000001xxxxxxxxxxxxxxxxxxxxxxxxxxxxxxxxxxxxxxxxxxxxxxxxxxxxxxxxxxxxxxxxxxxxxxxxxxx00000000000000000000000000000000xxxxxxxxxxxxxxxxxxxxxxxxxxxxxxxxxxxxxxxxxxxxxx <
b0 <!
bx <"
b0 =
0=!
bx ="
bx00000000000000000000000000000000 >
bx >!
x>"
bx00000000000000000000000000000000x1xxx ?
bx ?!
bx ?"
bx00000000xxxxxxx000000000000000000000000000000000000000000000000000000000000000000000000000000000000000000000000xx @
0@!
b1111111111111110000000000000000 @"
b0 A
b100000 A!
b1111111111111110000000000000000 A"
0B
b0 B!
b0 B"
xC
b0 C!
b0 C"
bx D
0D!
b0 D"
0E
bx E!
b0 E"
1F
bx F!
b0 F"
0G
xG!
xG"
1H
bx H!
1H"
bx I
bx I!
b0 I"
bx J
bx J!
b0 J"
bx K
0K!
b0 K"
bx L
b0 L!
b0 L"
xM
xM!
b0 M"
0N
b0 N!
b0 N"
0O
bx O!
b0 O"
0P
xP!
b0 P"
0Q
0Q!
xQ"
xR
bx R!
b100 R"
bx S
bx S!
b0 S"
0T
b0 T!
b0 T"
0U
b10000 U!
b0 U"
bx V
b10000 V!
b0 V"
bx W
b0 W!
xW"
bx X
b0 X!
b0 X"
xY
b0 Y!
b0 Y"
bx Z
b0 Z!
b0 Z"
0[
x[!
x["
b0 \
b0 \!
0\"
bx ]
x]!
bx ]"
bx ^
bx ^!
bx ^"
x_
b0 _!
x_"
0`
x`!
x`"
bx a
bx a!
xa"
b0 b
bx b!
xb"
bx c
xc!
xc"
bx d
bx d!
xd"
0e
bx e!
bx e"
bx f
bx f!
bx f"
0g
bx g!
bx g"
bx0xxxxxxxxxxxxxxxxxxxxxxxxxxxxxxxx h
bx h!
bx h"
bx i
xi!
b0 i"
bx0xxxxxxxxxxxxxxxxxxxxxxxxxxxxxxxx j
bx j!
b0 j"
bx k
bx k!
b0 k"
xl
0l!
xl"
bx m
b0 m!
0m"
bx n
b0 n!
0n"
xo
xo!
xo"
bx p
bx p!
xp"
bx q
xq!
xq"
xr
bx r!
bx r"
0s
xs!
bx s"
b11111 t
xt!
bx t"
xu
bx u!
bx u"
b0 v
xv!
xv"
b0 w
bx w!
0w"
0x
bx x!
0x"
bx y
bx y!
xy"
bx z
1z!
bx z"
bx {
b0 {!
bx {"
bx |
b0 |!
bx |"
x}
bx }!
bx }"
x~
x~!
b0 ~"
$end

#5000
1!
b0 !"
1#
1%!
0%"
0&!
b10000000000000010000000100000000 '
1'!
b0 (!
1)
0-
0-!
0.
0/
00
00"
b10000000000000000000000101001001110000000000000010000000100000000 2
b0 3!
04
b0 4!
b0 4"
b0 5
b0 5!
bx 5"
b0 6!
b1000000000000000000000000000000000000000000000000000000000000000000000000000000000000000000000000000000000000000000000000000000000000000000000000000000000 <
b0 ="
b0 >
b11111111111111111111111111111111 >!
0>"
b1000 ?
b0 ?!
b0 ?"
b0xxxxxxx000000000000000000000000000000000000000000000000000000000000000000000000000000000000000000000000xx @
1@!
b100000 A!
0C
b10000000000000010000000100000000 D
b0 E!
0F
b0 F!
b100 F"
0G!
0G"
0H
b0 I
b10000000000000010000000100000000 J
b0 K
b0 L
0M
b0 O!
0Q"
0R
b0 R!
b10000000000000010000000100000000 S
b0 S!
b10000 U!
b0 V
b10000 V!
b100000000000000100000001 W
0W"
b0 X
1Y
b10000000000000010000000100000000 Z
0["
b100000000000000100000001 ]
bx00000000000000000000000000000000 ]"
b0 ^
b0 ^!
bx00000000000000000000000000000000x1xxx ^"
1_
0`!
0`"
b0 a
b0 a!
0a"
b0 b!
0b"
b1010010011 c
0c"
b0 d
b0 d!
b0 e!
b0 e"
b10000000000000010000000100000000 f
b0 f!
b0 f"
b0 g!
b0 g"
b10000000000000010000000100000000 h
b0 h!
b0 h"
b0 i
0i!
b10000000000000010000000100000000 j
b0 j!
b0 k
b0 k!
b100000 k"
1l
0l"
b0 m
b0 n
0o
0o!
b0 p!
1p"
b0 q
b0 r!
b0 r"
1s!
b0 s"
b0 t
0t!
b0 t"
0u
bx000000001xxxxxxxxxxxxxxxxxxxxxxxxxxxxxxxxxxxxxxxxxxxxxxxxxxxxxxxxxxxxxxxxxxxxxxxxxxx00000000000000000000000000000000xxxxxxxxxxxxxxxxxxxxxxxxxxxxxxxxxxxxxxxxxxxxxx u!
b0 u"
0v"
bx0000001xxxx w!
b0 x!
b0 z"
b0 {"
b0 |"
b0 }!
b0 }"
0~!

#10000
0!
0#
0)

#15000
1!
0""
1#
b0 &"
b0 '"
b0 ("
1)
0)!
0,!
0.!
01"
02!
b0 2"
b0 3"
06"
0;!
b1000000000000000000000000000000000000000000000000000000000000000000000000000000000000000000000000000000000 @
b100 F"
0M!
0P!
0[!
0]!
b0 ]"
b1000 ^"
0_"
0c!
0d"
b100000 k"
0o"
b10000000000000000000000101001001110000000000000010000000100000000 p
0q!
0q"
0r
b1000000000000000000000000000000000000000000000000000000000000000000000000000000000000000000000000000000000000000000000000000000000000000000000000000000000 u!
0v!
b10000 w!
0y"

#20000
0!
0"
0#
0$
0)
0*

#25000
1!
1#
b11111111111111111111111111111111 $"
b10000000000000010000000100000100 '
1)
b10001000000000000000000110001001110000000000000010000000100000100 2
1>"
b10000000000000010000000100000100 D
b100 F"
b10000000000000010000000100000100 J
b100 K
b10000000000000010000000100000100 S
b1 X
b10000000000000010000000100000100 Z
b1 ^
b11111111111111111111111111111111 _!
b1 a
b10000000000000000001100010011 c
b10000000000000010000000100000100 f
b10000000000000010000000100000100 h
b10000000000000010000000100000000 i
b10000000000000010000000100000100 j
b10000000000000010000000100000000 k

#30000
0!
0#
0)

#35000
1!
1#
b11111111111111111111111111111111 $"
b10000000000000010000000100001000 '
1)
b11000000000000001000000111011011110000000000000010000000100001000 2
b10000000000000010000000100001000 D
b100 F"
b10000000000000010000000100001000 J
b1000 K
b10000000000000010000000100001000 S
b10 X
b10000000000000010000000100001000 Z
b10 ^
b11111111111111111111111111111111 _!
b10 a
b10000000000000010000001110110111 c
b10000000000000010000000100001000 f
b10000000000000010000000100001000 h
b10000000000000010000000100000100 i
b10000000000000010000000100001000 j
b10000000000000010000000100000100 k
b10001000000000000000000110001001110000000000000010000000100000100 p

#40000
0!
0#
0)

#45000
1!
1#
b11111111111111111111111111111111 $"
b10000000000000010000000100001100 '
1)
b10001000000000011100000111001001110000000000000010000000100001100 2
b10000000000000010000000100001100 D
b100 F"
b10000000000000010000000100001100 J
b1100 K
b10000000000000010000000100001100 S
b11 X
b10000000000000010000000100001100 Z
b11 ^
b11111111111111111111111111111111 _!
b11 a
b10000000000111000001110010011 c
b10000000000000010000000100001100 f
b10000000000000010000000100001100 h
b10000000000000010000000100001000 i
b10000000000000010000000100001100 j
b10000000000000010000000100001000 k
b11000000000000001000000111011011110000000000000010000000100001000 p

#50000
0!
0#
0)

#55000
1!
1#
b11111111111111111111111111111111 $"
b10000000000000010000000100010000 '
1)
b10000000001010011100000000010001110000000000000010000000100010000 2
b10000000000000010000000100010000 D
b100 F"
b10000000000000010000000100010000 J
b10000 K
b10000000000000010000000100010000 S
b100 X
b10000000000000010000000100010000 Z
b100 ^
b11111111111111111111111111111111 _!
b100 a
b10100111000000000100011 c
b10000000000000010000000100010000 f
b10000000000000010000000100010000 h
b10000000000000010000000100001100 i
b10000000000000010000000100010000 j
b10000000000000010000000100001100 k
b10001000000000011100000111001001110000000000000010000000100001100 p

#60000
0!
0#
0)

#65000
1!
1#
b11111111111111111111111111111111 $"
b10000000000000010000000100010100 '
1)
b10000000000010010100000101001001110000000000000010000000100010100 2
b10000000000000010000000100010100 D
b100 F"
b10000000000000010000000100010100 J
b10100 K
b10000000000000010000000100010100 S
b101 X
b10000000000000010000000100010100 Z
b101 ^
b11111111111111111111111111111111 _!
b101 a
b100101000001010010011 c
b10000000000000010000000100010100 f
b10000000000000010000000100010100 h
b10000000000000010000000100010000 i
b10000000000000010000000100010100 j
b10000000000000010000000100010000 k
b10000000001010011100000000010001110000000000000010000000100010000 p

#70000
0!
0#
0)

#75000
1!
1#
b11111111111111111111111111111111 $"
b10000000000000010000000100011000 '
1)
b10000000000010011100000111001001110000000000000010000000100011000 2
b10000000000000010000000100011000 D
b100 F"
b10000000000000010000000100011000 J
b11000 K
b10000000000000010000000100011000 S
b110 X
b10000000000000010000000100011000 Z
b110 ^
b11111111111111111111111111111111 _!
b110 a
b100111000001110010011 c
b10000000000000010000000100011000 f
b10000000000000010000000100011000 h
b10000000000000010000000100010100 i
b10000000000000010000000100011000 j
b10000000000000010000000100010100 k
b10000000000010010100000101001001110000000000000010000000100010100 p

#80000
0!
0#
0)

